interactions:
- request:
    body: null
    headers:
      Accept:
      - '*/*'
      Accept-Encoding:
      - gzip, deflate
      Authorization:
      - Bearer eyJ0eXAiOiJKV1QiLCJhbGciOiJSUzI1NiJ9.eyJ0b2tlbl90eXBlIjoiYWNjZXNzIiwiZXhwIjoxNTkxODg1NjA2LCJqdGkiOiJjNmZjM2VhZTgwZjA0ODRlOWYzNjVjODUyNmNmMWM3NyIsInVzZXJfaWQiOiJhN2ExYmYyNy00ZjVhLTRjMDYtOTZjMi0yZDgxMmM1MWI2MWYifQ.pQ16hqhuBePE5V9hG7dT0V9l1xXghL0OzSTriTzLgrpS491pP3vr7dMxW1h9xQu_8V56Ce5awvgbpZxHcNhPM9DZTyEFZDrhknIGkG7iFiLjNRuakfwuEJls2AOYmdqtzdkLOLE2_iZpPhkCsLvlKmxm7ELxni4RsYv77-M1RaBdZ2k2OppTDBblwwj7ZM6wpvT29VhzV-oUjQTMTJpTm-3BazCtI8E4wBkE0ZMAKotykKaDEgXXzX2JfKtCBXUhODNUZ-7YqL-IqVbQilj_wb7hjGA2DdPF3gh_JqWpZ0ra1ULYX69Q-4w0qwnW0oOEc6YzkZ7NMANrKUKeza26Xg
      Connection:
      - keep-alive
      User-Agent:
      - python-requests/2.23.0
    method: GET
    uri: http://api.dev.documentcloud.org/api/projects/100320/documents/?per_page=1&expand=document
  response:
    body:
      string: '{"count":3,"next":"http://api.dev.documentcloud.org/api/projects/100320/documents/?expand=document&page=2&per_page=1","previous":null,"results":[{"document":{"id":10000848,"access":"private","asset_url":"http://api.dev.documentcloud.org/files/","canonical_url":"http://www.dev.documentcloud.org/documents/10000848-test","created_at":"2020-06-11T14:21:09.157734Z","data":{},"description":"","edit_access":true,"language":"eng","organization":11343,"page_count":1,"page_spec":"612.0x792.0:0","presigned_url":"https://documentcloud-dev-mjk.s3.amazonaws.com/documents/10000848/test.pdf?X-Amz-Algorithm=AWS4-HMAC-SHA256&X-Amz-Credential=AKIA4JBBEJ7KWPNZQB7I%2F20200611%2Fus-east-1%2Fs3%2Faws4_request&X-Amz-Date=20200611T142227Z&X-Amz-Expires=300&X-Amz-SignedHeaders=host&X-Amz-Signature=b3aaa8c0e1817450481decd6b9f0bad1890f645f5da19b172df55dba786403d2","projects":[100320],"related_article":"","published_url":"","slug":"test","source":"","status":"success","title":"test","updated_at":"2020-06-11T14:21:12.677089Z","user":100098},"edit_access":true}]}'
    headers:
      Allow:
      - GET, POST, PUT, PATCH, DELETE, HEAD, OPTIONS
      Connection:
      - keep-alive
      Content-Language:
      - en
      Content-Length:
      - '1048'
      Content-Type:
      - application/json
      Date:
      - Thu, 11 Jun 2020 14:22:27 GMT
      Server:
      - nginx/1.15.1
      Vary:
      - Accept, Origin, Accept-Language, Cookie
      X-Frame-Options:
      - DENY
      X-XSS-Protection:
      - 1; mode=block
    status:
      code: 200
      message: OK
- request:
    body: null
    headers:
      Accept:
      - '*/*'
      Accept-Encoding:
      - gzip, deflate
      Authorization:
      - Bearer eyJ0eXAiOiJKV1QiLCJhbGciOiJSUzI1NiJ9.eyJ0b2tlbl90eXBlIjoiYWNjZXNzIiwiZXhwIjoxNTkxODg1NjA2LCJqdGkiOiJjNmZjM2VhZTgwZjA0ODRlOWYzNjVjODUyNmNmMWM3NyIsInVzZXJfaWQiOiJhN2ExYmYyNy00ZjVhLTRjMDYtOTZjMi0yZDgxMmM1MWI2MWYifQ.pQ16hqhuBePE5V9hG7dT0V9l1xXghL0OzSTriTzLgrpS491pP3vr7dMxW1h9xQu_8V56Ce5awvgbpZxHcNhPM9DZTyEFZDrhknIGkG7iFiLjNRuakfwuEJls2AOYmdqtzdkLOLE2_iZpPhkCsLvlKmxm7ELxni4RsYv77-M1RaBdZ2k2OppTDBblwwj7ZM6wpvT29VhzV-oUjQTMTJpTm-3BazCtI8E4wBkE0ZMAKotykKaDEgXXzX2JfKtCBXUhODNUZ-7YqL-IqVbQilj_wb7hjGA2DdPF3gh_JqWpZ0ra1ULYX69Q-4w0qwnW0oOEc6YzkZ7NMANrKUKeza26Xg
      Connection:
      - keep-alive
      User-Agent:
      - python-requests/2.23.0
    method: GET
    uri: http://api.dev.documentcloud.org/api/projects/100320/documents/?expand=document&page=2&per_page=1
  response:
    body:
      string: '{"count":3,"next":"http://api.dev.documentcloud.org/api/projects/100320/documents/?expand=document&page=3&per_page=1","previous":"http://api.dev.documentcloud.org/api/projects/100320/documents/?expand=document&per_page=1","results":[{"document":{"id":10000849,"access":"private","asset_url":"http://api.dev.documentcloud.org/files/","canonical_url":"http://www.dev.documentcloud.org/documents/10000849-test","created_at":"2020-06-11T14:21:14.356847Z","data":{"_tag":["document"]},"description":"A
        simple test document","edit_access":true,"language":"eng","organization":11343,"page_count":1,"page_spec":"612.0x792.0:0","presigned_url":"https://documentcloud-dev-mjk.s3.amazonaws.com/documents/10000849/test.pdf?X-Amz-Algorithm=AWS4-HMAC-SHA256&X-Amz-Credential=AKIA4JBBEJ7KWPNZQB7I%2F20200611%2Fus-east-1%2Fs3%2Faws4_request&X-Amz-Date=20200611T142227Z&X-Amz-Expires=300&X-Amz-SignedHeaders=host&X-Amz-Signature=a44b0849efc4f8e71d26877df42ce4061c846854e9eec5675f400f2b56b84693","projects":[100320],"related_article":"https://www.example.com/article/","published_url":"https://www.example.com/article/test.pdf","slug":"test","source":"MuckRock","status":"success","title":"test","updated_at":"2020-06-11T14:21:48.464754Z","user":100098},"edit_access":true}]}'
    headers:
      Allow:
      - GET, POST, PUT, PATCH, DELETE, HEAD, OPTIONS
      Connection:
      - keep-alive
      Content-Language:
      - en
      Content-Length:
      - '1257'
      Content-Type:
      - application/json
      Date:
      - Thu, 11 Jun 2020 14:22:27 GMT
      Server:
      - nginx/1.15.1
      Vary:
      - Accept, Origin, Accept-Language, Cookie
      X-Frame-Options:
      - DENY
      X-XSS-Protection:
      - 1; mode=block
    status:
      code: 200
      message: OK
- request:
    body: null
    headers:
      Accept:
      - '*/*'
      Accept-Encoding:
      - gzip, deflate
      Authorization:
      - Bearer eyJ0eXAiOiJKV1QiLCJhbGciOiJSUzI1NiJ9.eyJ0b2tlbl90eXBlIjoiYWNjZXNzIiwiZXhwIjoxNTkxODg1NjA2LCJqdGkiOiJjNmZjM2VhZTgwZjA0ODRlOWYzNjVjODUyNmNmMWM3NyIsInVzZXJfaWQiOiJhN2ExYmYyNy00ZjVhLTRjMDYtOTZjMi0yZDgxMmM1MWI2MWYifQ.pQ16hqhuBePE5V9hG7dT0V9l1xXghL0OzSTriTzLgrpS491pP3vr7dMxW1h9xQu_8V56Ce5awvgbpZxHcNhPM9DZTyEFZDrhknIGkG7iFiLjNRuakfwuEJls2AOYmdqtzdkLOLE2_iZpPhkCsLvlKmxm7ELxni4RsYv77-M1RaBdZ2k2OppTDBblwwj7ZM6wpvT29VhzV-oUjQTMTJpTm-3BazCtI8E4wBkE0ZMAKotykKaDEgXXzX2JfKtCBXUhODNUZ-7YqL-IqVbQilj_wb7hjGA2DdPF3gh_JqWpZ0ra1ULYX69Q-4w0qwnW0oOEc6YzkZ7NMANrKUKeza26Xg
      Connection:
      - keep-alive
      User-Agent:
      - python-requests/2.23.0
    method: GET
    uri: http://api.dev.documentcloud.org/api/projects/100320/documents/?expand=document&page=3&per_page=1
  response:
    body:
      string: '{"count":3,"next":null,"previous":"http://api.dev.documentcloud.org/api/projects/100320/documents/?expand=document&page=2&per_page=1","results":[{"document":{"id":10000862,"access":"private","asset_url":"http://api.dev.documentcloud.org/files/","canonical_url":"http://www.dev.documentcloud.org/documents/10000862-test","created_at":"2020-06-11T14:22:23.152736Z","data":{},"description":"","edit_access":true,"language":"eng","organization":11343,"page_count":1,"page_spec":"612.0x792.0:0","presigned_url":"https://documentcloud-dev-mjk.s3.amazonaws.com/documents/10000862/test.pdf?X-Amz-Algorithm=AWS4-HMAC-SHA256&X-Amz-Credential=AKIA4JBBEJ7KWPNZQB7I%2F20200611%2Fus-east-1%2Fs3%2Faws4_request&X-Amz-Date=20200611T142227Z&X-Amz-Expires=300&X-Amz-SignedHeaders=host&X-Amz-Signature=b89df606e2408449bacf39dd758e4ad2fe3c1e05342bf4d66a1a1de07ac3efb9","projects":[100320],"related_article":"","published_url":"","slug":"test","source":"","status":"success","title":"test","updated_at":"2020-06-11T14:22:26.317656Z","user":100098},"edit_access":true}]}'
    headers:
      Allow:
      - GET, POST, PUT, PATCH, DELETE, HEAD, OPTIONS
      Connection:
      - keep-alive
      Content-Language:
      - en
      Content-Length:
      - '1048'
      Content-Type:
      - application/json
      Date:
      - Thu, 11 Jun 2020 14:22:27 GMT
      Server:
      - nginx/1.15.1
      Vary:
      - Accept, Origin, Accept-Language, Cookie
      X-Frame-Options:
      - DENY
      X-XSS-Protection:
      - 1; mode=block
    status:
      code: 200
      message: OK
version: 1
