interactions:
- request:
    body: null
    headers:
      Accept:
      - '*/*'
      Accept-Encoding:
      - gzip, deflate
      Authorization:
      - Bearer eyJ0eXAiOiJKV1QiLCJhbGciOiJSUzI1NiJ9.eyJ0b2tlbl90eXBlIjoiYWNjZXNzIiwiZXhwIjoxNTkyMDYwODc1LCJqdGkiOiI1ZjUyZmQ2YzA3ZWY0ZWY5YjYxZWY0NzZiYmFmN2Q2ZiIsInVzZXJfaWQiOiJhN2ExYmYyNy00ZjVhLTRjMDYtOTZjMi0yZDgxMmM1MWI2MWYifQ.Sd_gWoQGWhhGPHuZnU1TZkl_Jm3QG2W_6Wr2fogKBHOxbbmISbW8I9RmKFb-F5-XYHtRMiNl6AD-LMWEcQBvoNS2DOcp4d12cuBDAAvd8bdTzpWO7cuCQeFLMEBr1AxvgLcUHeDohrDPK3JQIB5nRsi72VGvIH_qZCNPA39aJtysqCVl7cke7vdgnxIZRgaTqj79_Pbl0tHh66AKrtDmg9yGLyptYlN26dy7d3h8yy_dFZof9tikTo5x5nTdMvQzWZ1KiWID_SZpyNrwFFF0NnfyHyRkFAlTnb4DpA_clKixB0Um-YcQfOSXcGBJZL_HtrOWyrFPorOfsTQSbOf3Sw
      Connection:
      - keep-alive
      User-Agent:
      - python-requests/2.23.0
    method: GET
    uri: http://api.dev.documentcloud.org/api/documents/?per_page=2
  response:
    body:
      string: '{"count":57,"next":"http://api.dev.documentcloud.org/api/documents/?page=2&per_page=2","previous":null,"results":[{"id":609,"access":"public","asset_url":"https://documentcloud-dev-mjk.s3.amazonaws.com/","canonical_url":"http://www.dev.documentcloud.org/documents/609-foo","created_at":"2010-03-24T21:53:10.411520Z","data":{"a-key":["value"]},"description":"","edit_access":false,"language":"eng","organization":2,"page_count":2,"page_spec":"612.0x790.9200439453125:0-1","projects":[],"related_article":"","published_url":"","slug":"foo","source":"Talking
        Points Memo","status":"success","title":"Disputed Memo Purporting To Be Dem
        Plan for Medicare Change","updated_at":"2020-05-25T19:52:19.500880Z","user":2},{"id":613,"access":"public","asset_url":"https://documentcloud-dev-mjk.s3.amazonaws.com/","canonical_url":"http://www.dev.documentcloud.org/documents/613-national-conference-2010-letter-from-sue-myrick","created_at":"2010-03-25T14:08:23.066983Z","data":{},"description":"","edit_access":false,"language":"eng","organization":2,"page_count":1,"page_spec":"","projects":[],"related_article":"","published_url":"","slug":"national-conference-2010-letter-from-sue-myrick","source":"Talking
        Points Memo","status":"success","title":"National Conference 2010 Letter from
        Sue Myrick","updated_at":"2020-04-07T15:37:53.041037Z","user":2}]}'
    headers:
      Allow:
      - GET, POST, PUT, PATCH, DELETE, HEAD, OPTIONS
      Cache-Control:
      - no-cache
      Connection:
      - keep-alive
      Content-Language:
      - en
      Content-Length:
      - '1341'
      Content-Type:
      - application/json
      Date:
      - Sat, 13 Jun 2020 15:03:11 GMT
      Server:
      - nginx/1.15.1
      Vary:
      - Accept, Origin, Accept-Language, Cookie
      X-Frame-Options:
      - DENY
      X-XSS-Protection:
      - 1; mode=block
    status:
      code: 200
      message: OK
- request:
    body: null
    headers:
      Accept:
      - '*/*'
      Accept-Encoding:
      - gzip, deflate
      Authorization:
      - Bearer eyJ0eXAiOiJKV1QiLCJhbGciOiJSUzI1NiJ9.eyJ0b2tlbl90eXBlIjoiYWNjZXNzIiwiZXhwIjoxNTkyMDYwODc1LCJqdGkiOiI1ZjUyZmQ2YzA3ZWY0ZWY5YjYxZWY0NzZiYmFmN2Q2ZiIsInVzZXJfaWQiOiJhN2ExYmYyNy00ZjVhLTRjMDYtOTZjMi0yZDgxMmM1MWI2MWYifQ.Sd_gWoQGWhhGPHuZnU1TZkl_Jm3QG2W_6Wr2fogKBHOxbbmISbW8I9RmKFb-F5-XYHtRMiNl6AD-LMWEcQBvoNS2DOcp4d12cuBDAAvd8bdTzpWO7cuCQeFLMEBr1AxvgLcUHeDohrDPK3JQIB5nRsi72VGvIH_qZCNPA39aJtysqCVl7cke7vdgnxIZRgaTqj79_Pbl0tHh66AKrtDmg9yGLyptYlN26dy7d3h8yy_dFZof9tikTo5x5nTdMvQzWZ1KiWID_SZpyNrwFFF0NnfyHyRkFAlTnb4DpA_clKixB0Um-YcQfOSXcGBJZL_HtrOWyrFPorOfsTQSbOf3Sw
      Connection:
      - keep-alive
      User-Agent:
      - python-requests/2.23.0
    method: GET
    uri: http://api.dev.documentcloud.org/api/documents/?page=2&per_page=2
  response:
    body:
      string: '{"count":57,"next":"http://api.dev.documentcloud.org/api/documents/?page=3&per_page=2","previous":"http://api.dev.documentcloud.org/api/documents/?per_page=2","results":[{"id":615,"access":"public","asset_url":"https://documentcloud-dev-mjk.s3.amazonaws.com/","canonical_url":"http://www.dev.documentcloud.org/documents/615-eric-massa-press-statement","created_at":"2010-03-25T14:10:01.627158Z","data":{},"description":"","edit_access":false,"language":"eng","organization":2,"page_count":1,"page_spec":"","projects":[],"related_article":"","published_url":"","slug":"eric-massa-press-statement","source":"Talking
        Points Memo","status":"success","title":"Eric Massa Press Statement","updated_at":"2020-04-07T15:37:53.040258Z","user":2},{"id":617,"access":"public","asset_url":"https://documentcloud-dev-mjk.s3.amazonaws.com/","canonical_url":"http://www.dev.documentcloud.org/documents/617-torture-memo-august-2002","created_at":"2010-03-25T14:12:20.493540Z","data":{},"description":"","edit_access":false,"language":"eng","organization":2,"page_count":50,"page_spec":"","projects":[111],"related_article":"","published_url":"","slug":"torture-memo-august-2002","source":"Talking
        Points Memo","status":"success","title":"Torture Memo August 2002","updated_at":"2020-04-07T15:37:53.041659Z","user":2}]}'
    headers:
      Allow:
      - GET, POST, PUT, PATCH, DELETE, HEAD, OPTIONS
      Cache-Control:
      - no-cache
      Connection:
      - keep-alive
      Content-Language:
      - en
      Content-Length:
      - '1301'
      Content-Type:
      - application/json
      Date:
      - Sat, 13 Jun 2020 15:03:11 GMT
      Server:
      - nginx/1.15.1
      Vary:
      - Accept, Origin, Accept-Language, Cookie
      X-Frame-Options:
      - DENY
      X-XSS-Protection:
      - 1; mode=block
    status:
      code: 200
      message: OK
version: 1
