interactions:
- request:
    body: null
    headers:
      Accept:
      - '*/*'
      Accept-Encoding:
      - gzip, deflate
      Authorization:
      - Bearer eyJ0eXAiOiJKV1QiLCJhbGciOiJSUzI1NiJ9.eyJ0b2tlbl90eXBlIjoiYWNjZXNzIiwiZXhwIjoxNTkxODg2MjE0LCJqdGkiOiIwYjhkMTM1Y2FiOTA0NmQwYmNiYjBmNzk5YTM0NzkwZCIsInVzZXJfaWQiOiJhN2ExYmYyNy00ZjVhLTRjMDYtOTZjMi0yZDgxMmM1MWI2MWYifQ.d4TDqdOf07naCpAvG-ShGRTjt-FUbguc-wecbR4gWrzRVf7NRLoauLSaErrcpUhk1keGpuDze1zUOa-70V0u73SNUHFFBl2FSRd5pNCZBF5YKn5CKq4G7VsarITnd3xh3CwkUq0onKAtPfSzBQoppH2Z_AXLl1FvmxBiIFsJ7yKNarW950gSBoz2Tpa0EeIDywuV4smiF1SmYScJpN2F1ojOGWpAwyNPttR9XUJJJwLQu4VoVZkqrbCSz9B6mvm1fEpi53ljH2xQAXB8ff2DGGPlXKA5PhGFoGDppE27IDOYViEjjBW46-UGuSLrI4VZD007HrHz2j3NAOCRhA8b_A
      Connection:
      - keep-alive
      User-Agent:
      - python-requests/2.23.0
    method: GET
    uri: http://api.dev.documentcloud.org/api/documents/?user=100098&per_page=1&page=2
  response:
    body:
      string: '{"count":31,"next":"http://api.dev.documentcloud.org/api/documents/?page=3&per_page=1&user=100098","previous":"http://api.dev.documentcloud.org/api/documents/?per_page=1&user=100098","results":[{"id":10000638,"access":"private","asset_url":"http://api.dev.documentcloud.org/files/","canonical_url":"http://www.dev.documentcloud.org/documents/10000638-text","created_at":"2020-06-11T02:15:49.510150Z","data":{},"description":"","edit_access":true,"language":"eng","organization":11343,"page_count":1,"page_spec":"611.9716796875x791.9716796875:0","projects":[],"related_article":"","published_url":"","slug":"text","source":"","status":"success","title":"text","updated_at":"2020-06-11T02:15:53.561977Z","user":100098}]}'
    headers:
      Allow:
      - GET, POST, PUT, PATCH, DELETE, HEAD, OPTIONS
      Cache-Control:
      - no-cache
      Connection:
      - keep-alive
      Content-Language:
      - en
      Content-Length:
      - '718'
      Content-Type:
      - application/json
      Date:
      - Thu, 11 Jun 2020 14:32:19 GMT
      Server:
      - nginx/1.15.1
      Vary:
      - Accept, Origin, Accept-Language, Cookie
      X-Frame-Options:
      - DENY
      X-XSS-Protection:
      - 1; mode=block
    status:
      code: 200
      message: OK
- request:
    body: null
    headers:
      Accept:
      - '*/*'
      Accept-Encoding:
      - gzip, deflate
      Authorization:
      - Bearer eyJ0eXAiOiJKV1QiLCJhbGciOiJSUzI1NiJ9.eyJ0b2tlbl90eXBlIjoiYWNjZXNzIiwiZXhwIjoxNTkxODg2MjE0LCJqdGkiOiIwYjhkMTM1Y2FiOTA0NmQwYmNiYjBmNzk5YTM0NzkwZCIsInVzZXJfaWQiOiJhN2ExYmYyNy00ZjVhLTRjMDYtOTZjMi0yZDgxMmM1MWI2MWYifQ.d4TDqdOf07naCpAvG-ShGRTjt-FUbguc-wecbR4gWrzRVf7NRLoauLSaErrcpUhk1keGpuDze1zUOa-70V0u73SNUHFFBl2FSRd5pNCZBF5YKn5CKq4G7VsarITnd3xh3CwkUq0onKAtPfSzBQoppH2Z_AXLl1FvmxBiIFsJ7yKNarW950gSBoz2Tpa0EeIDywuV4smiF1SmYScJpN2F1ojOGWpAwyNPttR9XUJJJwLQu4VoVZkqrbCSz9B6mvm1fEpi53ljH2xQAXB8ff2DGGPlXKA5PhGFoGDppE27IDOYViEjjBW46-UGuSLrI4VZD007HrHz2j3NAOCRhA8b_A
      Connection:
      - keep-alive
      User-Agent:
      - python-requests/2.23.0
    method: GET
    uri: http://api.dev.documentcloud.org/api/documents/?per_page=1&user=100098
  response:
    body:
      string: '{"count":31,"next":"http://api.dev.documentcloud.org/api/documents/?page=2&per_page=1&user=100098","previous":null,"results":[{"id":10000637,"access":"private","asset_url":"http://api.dev.documentcloud.org/files/","canonical_url":"http://www.dev.documentcloud.org/documents/10000637-test","created_at":"2020-06-11T02:15:49.489996Z","data":{},"description":"","edit_access":true,"language":"eng","organization":11343,"page_count":1,"page_spec":"612.0x792.0:0","projects":[],"related_article":"","published_url":"","slug":"test","source":"","status":"success","title":"test","updated_at":"2020-06-11T02:15:53.366631Z","user":100098}]}'
    headers:
      Allow:
      - GET, POST, PUT, PATCH, DELETE, HEAD, OPTIONS
      Cache-Control:
      - no-cache
      Connection:
      - keep-alive
      Content-Language:
      - en
      Content-Length:
      - '632'
      Content-Type:
      - application/json
      Date:
      - Thu, 11 Jun 2020 14:32:19 GMT
      Server:
      - nginx/1.15.1
      Vary:
      - Accept, Origin, Accept-Language, Cookie
      X-Frame-Options:
      - DENY
      X-XSS-Protection:
      - 1; mode=block
    status:
      code: 200
      message: OK
version: 1
