interactions:
- request:
    body: null
    headers:
      Accept:
      - '*/*'
      Accept-Encoding:
      - gzip, deflate
      Authorization:
      - Bearer eyJ0eXAiOiJKV1QiLCJhbGciOiJSUzI1NiJ9.eyJ0b2tlbl90eXBlIjoiYWNjZXNzIiwiZXhwIjoxNTkxODgyOTU5LCJqdGkiOiI2NzMwZThhYjQ5YmY0YWRmOGI3YjI4ODRiYTA0OGU5MCIsInVzZXJfaWQiOiJhN2ExYmYyNy00ZjVhLTRjMDYtOTZjMi0yZDgxMmM1MWI2MWYifQ.cCenw65BmD9ZifBZ0ObgtssIswM9h0r0v0Tgh_Gh2Q4l9kWvKiJDTu0vnkS-iSZhLwhAAswjC5Fu7UjM-reptmNcItPnsVA8B3A9-bVfVSjGrvtTS16Ss-rMyjfGfoYktnEPmkh4CsyyvN7f7RNnqfuBo1ysMBcT_uLCCuf8TwpSZbvqj8YeP5vjkDkOiZ3KeGLY6gg9-3NAngNeUnnINpn26pxRSUpHLwI7nJ01-B5GiAG2kbhzDGSJULWu8TXjHB_TKFiSZRCg8NHeXkX-iRpAR2SYZbi6NHu_nu5jB5vuAX0lbJxyXB9TqVqK0HQzAwpbuNtKKvX-cUJjVqJE5A
      Connection:
      - keep-alive
      User-Agent:
      - python-requests/2.23.0
    method: GET
    uri: http://api.dev.documentcloud.org/api/documents/
  response:
    body:
      string: "{\"count\":41,\"next\":\"http://api.dev.documentcloud.org/api/documents/?page=2\",\"previous\":null,\"results\":[{\"id\":609,\"access\":\"public\",\"asset_url\":\"https://documentcloud-dev-mjk.s3.amazonaws.com/\",\"canonical_url\":\"http://www.dev.documentcloud.org/documents/609-foo\",\"created_at\":\"2010-03-24T21:53:10.411520Z\",\"data\":{\"a-key\":[\"value\"]},\"description\":\"\",\"edit_access\":false,\"language\":\"eng\",\"organization\":2,\"page_count\":2,\"page_spec\":\"612.0x790.9200439453125:0-1\",\"projects\":[],\"related_article\":\"\",\"published_url\":\"\",\"slug\":\"foo\",\"source\":\"Talking
        Points Memo\",\"status\":\"success\",\"title\":\"Disputed Memo Purporting
        To Be Dem Plan for Medicare Change\",\"updated_at\":\"2020-05-25T19:52:19.500880Z\",\"user\":2},{\"id\":613,\"access\":\"public\",\"asset_url\":\"https://documentcloud-dev-mjk.s3.amazonaws.com/\",\"canonical_url\":\"http://www.dev.documentcloud.org/documents/613-national-conference-2010-letter-from-sue-myrick\",\"created_at\":\"2010-03-25T14:08:23.066983Z\",\"data\":{},\"description\":\"\",\"edit_access\":false,\"language\":\"eng\",\"organization\":2,\"page_count\":1,\"page_spec\":\"\",\"projects\":[],\"related_article\":\"\",\"published_url\":\"\",\"slug\":\"national-conference-2010-letter-from-sue-myrick\",\"source\":\"Talking
        Points Memo\",\"status\":\"success\",\"title\":\"National Conference 2010
        Letter from Sue Myrick\",\"updated_at\":\"2020-04-07T15:37:53.041037Z\",\"user\":2},{\"id\":615,\"access\":\"public\",\"asset_url\":\"https://documentcloud-dev-mjk.s3.amazonaws.com/\",\"canonical_url\":\"http://www.dev.documentcloud.org/documents/615-eric-massa-press-statement\",\"created_at\":\"2010-03-25T14:10:01.627158Z\",\"data\":{},\"description\":\"\",\"edit_access\":false,\"language\":\"eng\",\"organization\":2,\"page_count\":1,\"page_spec\":\"\",\"projects\":[],\"related_article\":\"\",\"published_url\":\"\",\"slug\":\"eric-massa-press-statement\",\"source\":\"Talking
        Points Memo\",\"status\":\"success\",\"title\":\"Eric Massa Press Statement\",\"updated_at\":\"2020-04-07T15:37:53.040258Z\",\"user\":2},{\"id\":617,\"access\":\"public\",\"asset_url\":\"https://documentcloud-dev-mjk.s3.amazonaws.com/\",\"canonical_url\":\"http://www.dev.documentcloud.org/documents/617-torture-memo-august-2002\",\"created_at\":\"2010-03-25T14:12:20.493540Z\",\"data\":{},\"description\":\"\",\"edit_access\":false,\"language\":\"eng\",\"organization\":2,\"page_count\":50,\"page_spec\":\"\",\"projects\":[111],\"related_article\":\"\",\"published_url\":\"\",\"slug\":\"torture-memo-august-2002\",\"source\":\"Talking
        Points Memo\",\"status\":\"success\",\"title\":\"Torture Memo August 2002\",\"updated_at\":\"2020-04-07T15:37:53.041659Z\",\"user\":2},{\"id\":619,\"access\":\"public\",\"asset_url\":\"https://documentcloud-dev-mjk.s3.amazonaws.com/\",\"canonical_url\":\"http://www.dev.documentcloud.org/documents/619-larry-seabrook-indictment\",\"created_at\":\"2010-03-25T14:14:17.648444Z\",\"data\":{},\"description\":\"\",\"edit_access\":false,\"language\":\"eng\",\"organization\":2,\"page_count\":66,\"page_spec\":\"\",\"projects\":[],\"related_article\":\"\",\"published_url\":\"\",\"slug\":\"larry-seabrook-indictment\",\"source\":\"Talking
        Points Memo\",\"status\":\"success\",\"title\":\"Larry Seabrook Indictment\",\"updated_at\":\"2020-04-07T15:37:53.043556Z\",\"user\":2},{\"id\":778,\"access\":\"public\",\"asset_url\":\"https://documentcloud-dev-mjk.s3.amazonaws.com/\",\"canonical_url\":\"http://www.dev.documentcloud.org/documents/778-david-stone-indictment\",\"created_at\":\"2010-03-29T14:43:31.678040Z\",\"data\":{},\"description\":\"\",\"edit_access\":false,\"language\":\"eng\",\"organization\":2,\"page_count\":12,\"page_spec\":\"\",\"projects\":[],\"related_article\":\"\",\"published_url\":\"\",\"slug\":\"david-stone-indictment\",\"source\":\"Talking
        Points Memo\",\"status\":\"success\",\"title\":\"David Stone Indictment\",\"updated_at\":\"2020-04-07T15:37:53.043273Z\",\"user\":2},{\"id\":1435,\"access\":\"public\",\"asset_url\":\"https://documentcloud-dev-mjk.s3.amazonaws.com/\",\"canonical_url\":\"http://www.dev.documentcloud.org/documents/1435-hutaree-piatek-name-change\",\"created_at\":\"2010-03-30T22:03:58.381499Z\",\"data\":{},\"description\":\"\",\"edit_access\":false,\"language\":\"eng\",\"organization\":2,\"page_count\":3,\"page_spec\":\"\",\"projects\":[],\"related_article\":\"\",\"published_url\":\"\",\"slug\":\"hutaree-piatek-name-change\",\"source\":\"\",\"status\":\"success\",\"title\":\"Hutaree
        - Piatek Name Change\",\"updated_at\":\"2020-04-07T15:37:53.042929Z\",\"user\":127},{\"id\":2825,\"access\":\"public\",\"asset_url\":\"https://documentcloud-dev-mjk.s3.amazonaws.com/\",\"canonical_url\":\"http://www.dev.documentcloud.org/documents/2825-unclassified-executive-summary-of-the-committee-report-on-the-attempted-terrorist-attack-on-northwest-airlines-flight-253\",\"created_at\":\"2010-05-18T21:29:20.827741Z\",\"data\":{\"year\":[\"2013\"],\"month\":[\"February\"],\"case-number\":[\"F1352128\"],\"arrestee-name\":[\"Lind\"]},\"description\":\"\",\"edit_access\":false,\"language\":\"eng\",\"organization\":2,\"page_count\":16,\"page_spec\":\"\",\"projects\":[],\"related_article\":\"\",\"published_url\":\"\",\"slug\":\"unclassified-executive-summary-of-the-committee-report-on-the-attempted-terrorist-attack-on-northwest-airlines-flight-253\",\"source\":\"Talking
        Points Memo\",\"status\":\"success\",\"title\":\"Unclassified Executive Summary
        of the Committee Report on the Attempted Terrorist Attack on Northwest Airlines
        Flight 253\",\"updated_at\":\"2020-05-25T19:52:19.502898Z\",\"user\":2},{\"id\":69778,\"access\":\"public\",\"asset_url\":\"https://documentcloud-dev-mjk.s3.amazonaws.com/\",\"canonical_url\":\"http://www.dev.documentcloud.org/documents/69778-koch\",\"created_at\":\"2011-02-15T15:47:45.538222Z\",\"data\":{},\"description\":\"\",\"edit_access\":false,\"language\":\"eng\",\"organization\":2,\"page_count\":3,\"page_spec\":\"\",\"projects\":[],\"related_article\":\"\",\"published_url\":\"\",\"slug\":\"koch\",\"source\":\"\",\"status\":\"success\",\"title\":\"Koch\",\"updated_at\":\"2020-04-07T15:37:53.043417Z\",\"user\":127},{\"id\":70048,\"access\":\"public\",\"asset_url\":\"https://documentcloud-dev-mjk.s3.amazonaws.com/\",\"canonical_url\":\"http://www.dev.documentcloud.org/documents/70048-3311\",\"created_at\":\"2011-02-16T16:10:05.196055Z\",\"data\":{},\"description\":\"\",\"edit_access\":false,\"language\":\"eng\",\"organization\":2,\"page_count\":2,\"page_spec\":\"\",\"projects\":[],\"related_article\":\"\",\"published_url\":\"\",\"slug\":\"3311\",\"source\":\"\",\"status\":\"success\",\"title\":\"3311\",\"updated_at\":\"2020-04-07T15:37:53.032898Z\",\"user\":127},{\"id\":10000022,\"access\":\"public\",\"asset_url\":\"https://documentcloud-dev-mjk.s3.amazonaws.com/\",\"canonical_url\":\"http://www.dev.documentcloud.org/documents/10000022-large_test\",\"created_at\":\"2020-03-27T13:41:41.892666Z\",\"data\":{},\"description\":\"\",\"edit_access\":false,\"language\":\"eng\",\"organization\":11171,\"page_count\":11,\"page_spec\":\"612.0x792.0:0-10\",\"projects\":[],\"related_article\":\"\",\"published_url\":\"\",\"slug\":\"large_test\",\"source\":\"\",\"status\":\"success\",\"title\":\"New
        Title\",\"updated_at\":\"2020-03-31T19:53:17.833394Z\",\"user\":100002},{\"id\":10000024,\"access\":\"public\",\"asset_url\":\"https://documentcloud-dev-mjk.s3.amazonaws.com/\",\"canonical_url\":\"http://www.dev.documentcloud.org/documents/10000024-test\",\"created_at\":\"2020-03-31T20:14:13.799912Z\",\"data\":{},\"description\":\"\",\"edit_access\":false,\"language\":\"eng\",\"organization\":11171,\"page_count\":1,\"page_spec\":\"612.0x792.0:0\",\"projects\":[],\"related_article\":\"\",\"published_url\":\"\",\"slug\":\"test\",\"source\":\"\",\"status\":\"success\",\"title\":\"test\",\"updated_at\":\"2020-03-31T20:16:47.729111Z\",\"user\":100002},{\"id\":10000028,\"access\":\"public\",\"asset_url\":\"https://documentcloud-dev-mjk.s3.amazonaws.com/\",\"canonical_url\":\"http://www.dev.documentcloud.org/documents/10000028-test\",\"created_at\":\"2020-03-31T20:31:14.881893Z\",\"data\":{},\"description\":\"\",\"edit_access\":false,\"language\":\"eng\",\"organization\":11171,\"page_count\":1,\"page_spec\":\"612.0x792.0:0\",\"projects\":[],\"related_article\":\"\",\"published_url\":\"\",\"slug\":\"test\",\"source\":\"\",\"status\":\"success\",\"title\":\"test\",\"updated_at\":\"2020-04-06T02:49:44.362052Z\",\"user\":100002},{\"id\":10000041,\"access\":\"public\",\"asset_url\":\"https://documentcloud-dev-mjk.s3.amazonaws.com/\",\"canonical_url\":\"http://www.dev.documentcloud.org/documents/10000041-no-force-ocr\",\"created_at\":\"2020-04-06T20:12:32.941958Z\",\"data\":{},\"description\":\"\",\"edit_access\":false,\"language\":\"eng\",\"organization\":11171,\"page_count\":1,\"page_spec\":\"612.0x792.0:0\",\"projects\":[],\"related_article\":\"\",\"published_url\":\"\",\"slug\":\"no-force-ocr\",\"source\":\"\",\"status\":\"success\",\"title\":\"No
        Force OCR\",\"updated_at\":\"2020-05-01T18:57:26.861202Z\",\"user\":100002},{\"id\":10000046,\"access\":\"public\",\"asset_url\":\"https://documentcloud-dev-mjk.s3.amazonaws.com/\",\"canonical_url\":\"http://www.dev.documentcloud.org/documents/10000046-dokument\",\"created_at\":\"2020-04-29T02:06:27.879122Z\",\"data\":{},\"description\":\"\",\"edit_access\":false,\"language\":\"eng\",\"organization\":11171,\"page_count\":1,\"page_spec\":\"612.0x792.0:0\",\"projects\":[],\"related_article\":\"\",\"published_url\":\"\",\"slug\":\"dokument\",\"source\":\"\",\"status\":\"success\",\"title\":\"\u0434\u043E\u043A\u0443\u043C\u0435\u043D\u0442\",\"updated_at\":\"2020-05-01T19:00:48.938575Z\",\"user\":100002},{\"id\":10000055,\"access\":\"public\",\"asset_url\":\"https://documentcloud-dev-mjk.s3.amazonaws.com/\",\"canonical_url\":\"http://www.dev.documentcloud.org/documents/10000055-dokument\",\"created_at\":\"2020-04-30T14:22:41.898941Z\",\"data\":{},\"description\":\"\",\"edit_access\":false,\"language\":\"eng\",\"organization\":11341,\"page_count\":0,\"page_spec\":\"\",\"projects\":[],\"related_article\":\"\",\"published_url\":\"\",\"slug\":\"dokument\",\"source\":\"\",\"status\":\"success\",\"title\":\"\u0434\u043E\u043A\u0443\u043C\u0435\u043D\u0442\",\"updated_at\":\"2020-04-30T14:22:41.900593Z\",\"user\":100096},{\"id\":10000056,\"access\":\"public\",\"asset_url\":\"https://documentcloud-dev-mjk.s3.amazonaws.com/\",\"canonical_url\":\"http://www.dev.documentcloud.org/documents/10000056-My-Title\",\"created_at\":\"2020-04-30T14:23:12.445346Z\",\"data\":{},\"description\":\"\",\"edit_access\":false,\"language\":\"eng\",\"organization\":11342,\"page_count\":0,\"page_spec\":\"\",\"projects\":[],\"related_article\":\"\",\"published_url\":\"\",\"slug\":\"My-Title\",\"source\":\"\",\"status\":\"success\",\"title\":\"My
        Title\",\"updated_at\":\"2020-04-30T14:23:12.445632Z\",\"user\":100097},{\"id\":10000062,\"access\":\"public\",\"asset_url\":\"https://documentcloud-dev-mjk.s3.amazonaws.com/\",\"canonical_url\":\"http://www.dev.documentcloud.org/documents/10000062-public-test\",\"created_at\":\"2020-05-04T19:16:31.123622Z\",\"data\":{},\"description\":\"\",\"edit_access\":false,\"language\":\"eng\",\"organization\":11171,\"page_count\":1,\"page_spec\":\"612.0x792.0:0\",\"projects\":[],\"related_article\":\"\",\"published_url\":\"\",\"slug\":\"public-test\",\"source\":\"\",\"status\":\"success\",\"title\":\"public
        test\",\"updated_at\":\"2020-05-04T19:17:43.746895Z\",\"user\":100002},{\"id\":10000064,\"access\":\"public\",\"asset_url\":\"https://documentcloud-dev-mjk.s3.amazonaws.com/\",\"canonical_url\":\"http://www.dev.documentcloud.org/documents/10000064-test\",\"created_at\":\"2020-05-04T19:21:28.996239Z\",\"data\":{},\"description\":\"\",\"edit_access\":false,\"language\":\"eng\",\"organization\":11171,\"page_count\":1,\"page_spec\":\"612.0x792.0:0\",\"projects\":[],\"related_article\":\"\",\"published_url\":\"\",\"slug\":\"test\",\"source\":\"\",\"status\":\"success\",\"title\":\"test\",\"updated_at\":\"2020-05-04T19:30:05.201906Z\",\"user\":100002},{\"id\":10000065,\"access\":\"public\",\"asset_url\":\"https://documentcloud-dev-mjk.s3.amazonaws.com/\",\"canonical_url\":\"http://www.dev.documentcloud.org/documents/10000065-public-test-2\",\"created_at\":\"2020-05-04T20:09:41.585780Z\",\"data\":{},\"description\":\"\",\"edit_access\":false,\"language\":\"eng\",\"organization\":11171,\"page_count\":1,\"page_spec\":\"612.0x792.0:0\",\"projects\":[],\"related_article\":\"\",\"published_url\":\"\",\"slug\":\"public-test-2\",\"source\":\"\",\"status\":\"success\",\"title\":\"public
        test 2\",\"updated_at\":\"2020-05-04T20:10:00.717338Z\",\"user\":100002},{\"id\":10000637,\"access\":\"private\",\"asset_url\":\"http://api.dev.documentcloud.org/files/\",\"canonical_url\":\"http://www.dev.documentcloud.org/documents/10000637-test\",\"created_at\":\"2020-06-11T02:15:49.489996Z\",\"data\":{},\"description\":\"\",\"edit_access\":true,\"language\":\"eng\",\"organization\":11343,\"page_count\":1,\"page_spec\":\"612.0x792.0:0\",\"projects\":[],\"related_article\":\"\",\"published_url\":\"\",\"slug\":\"test\",\"source\":\"\",\"status\":\"success\",\"title\":\"test\",\"updated_at\":\"2020-06-11T02:15:53.366631Z\",\"user\":100098},{\"id\":10000638,\"access\":\"private\",\"asset_url\":\"http://api.dev.documentcloud.org/files/\",\"canonical_url\":\"http://www.dev.documentcloud.org/documents/10000638-text\",\"created_at\":\"2020-06-11T02:15:49.510150Z\",\"data\":{},\"description\":\"\",\"edit_access\":true,\"language\":\"eng\",\"organization\":11343,\"page_count\":1,\"page_spec\":\"611.9716796875x791.9716796875:0\",\"projects\":[],\"related_article\":\"\",\"published_url\":\"\",\"slug\":\"text\",\"source\":\"\",\"status\":\"success\",\"title\":\"text\",\"updated_at\":\"2020-06-11T02:15:53.561977Z\",\"user\":100098},{\"id\":10000654,\"access\":\"private\",\"asset_url\":\"http://api.dev.documentcloud.org/files/\",\"canonical_url\":\"http://www.dev.documentcloud.org/documents/10000654-test\",\"created_at\":\"2020-06-11T11:31:42.941439Z\",\"data\":{},\"description\":\"\",\"edit_access\":true,\"language\":\"eng\",\"organization\":11343,\"page_count\":1,\"page_spec\":\"612.0x792.0:0\",\"projects\":[],\"related_article\":\"\",\"published_url\":\"\",\"slug\":\"test\",\"source\":\"\",\"status\":\"success\",\"title\":\"test\",\"updated_at\":\"2020-06-11T11:31:46.737597Z\",\"user\":100098},{\"id\":10000655,\"access\":\"private\",\"asset_url\":\"http://api.dev.documentcloud.org/files/\",\"canonical_url\":\"http://www.dev.documentcloud.org/documents/10000655-text\",\"created_at\":\"2020-06-11T11:31:42.959840Z\",\"data\":{},\"description\":\"\",\"edit_access\":true,\"language\":\"eng\",\"organization\":11343,\"page_count\":1,\"page_spec\":\"611.9716796875x791.9716796875:0\",\"projects\":[],\"related_article\":\"\",\"published_url\":\"\",\"slug\":\"text\",\"source\":\"\",\"status\":\"success\",\"title\":\"text\",\"updated_at\":\"2020-06-11T11:31:47.516044Z\",\"user\":100098},{\"id\":10000673,\"access\":\"private\",\"asset_url\":\"http://api.dev.documentcloud.org/files/\",\"canonical_url\":\"http://www.dev.documentcloud.org/documents/10000673-test\",\"created_at\":\"2020-06-11T11:36:37.206653Z\",\"data\":{},\"description\":\"\",\"edit_access\":true,\"language\":\"eng\",\"organization\":11343,\"page_count\":1,\"page_spec\":\"612.0x792.0:0\",\"projects\":[],\"related_article\":\"\",\"published_url\":\"\",\"slug\":\"test\",\"source\":\"\",\"status\":\"success\",\"title\":\"test\",\"updated_at\":\"2020-06-11T11:36:41.911540Z\",\"user\":100098}]}"
    headers:
      Allow:
      - GET, POST, PUT, PATCH, DELETE, HEAD, OPTIONS
      Cache-Control:
      - no-cache
      Connection:
      - keep-alive
      Content-Language:
      - en
      Content-Length:
      - '13858'
      Content-Type:
      - application/json
      Date:
      - Thu, 11 Jun 2020 13:37:59 GMT
      Server:
      - nginx/1.15.1
      Vary:
      - Accept, Origin, Accept-Language, Cookie
      X-Frame-Options:
      - DENY
      X-XSS-Protection:
      - 1; mode=block
    status:
      code: 200
      message: OK
- request:
    body: null
    headers:
      Accept:
      - '*/*'
      Accept-Encoding:
      - gzip, deflate
      Authorization:
      - Bearer eyJ0eXAiOiJKV1QiLCJhbGciOiJSUzI1NiJ9.eyJ0b2tlbl90eXBlIjoiYWNjZXNzIiwiZXhwIjoxNTkxODgyOTU5LCJqdGkiOiI2NzMwZThhYjQ5YmY0YWRmOGI3YjI4ODRiYTA0OGU5MCIsInVzZXJfaWQiOiJhN2ExYmYyNy00ZjVhLTRjMDYtOTZjMi0yZDgxMmM1MWI2MWYifQ.cCenw65BmD9ZifBZ0ObgtssIswM9h0r0v0Tgh_Gh2Q4l9kWvKiJDTu0vnkS-iSZhLwhAAswjC5Fu7UjM-reptmNcItPnsVA8B3A9-bVfVSjGrvtTS16Ss-rMyjfGfoYktnEPmkh4CsyyvN7f7RNnqfuBo1ysMBcT_uLCCuf8TwpSZbvqj8YeP5vjkDkOiZ3KeGLY6gg9-3NAngNeUnnINpn26pxRSUpHLwI7nJ01-B5GiAG2kbhzDGSJULWu8TXjHB_TKFiSZRCg8NHeXkX-iRpAR2SYZbi6NHu_nu5jB5vuAX0lbJxyXB9TqVqK0HQzAwpbuNtKKvX-cUJjVqJE5A
      Connection:
      - keep-alive
      User-Agent:
      - python-requests/2.23.0
    method: GET
    uri: http://api.dev.documentcloud.org/api/documents/?page=2
  response:
    body:
      string: '{"count":41,"next":null,"previous":"http://api.dev.documentcloud.org/api/documents/","results":[{"id":10000674,"access":"private","asset_url":"http://api.dev.documentcloud.org/files/","canonical_url":"http://www.dev.documentcloud.org/documents/10000674-text","created_at":"2020-06-11T11:36:37.225583Z","data":{},"description":"","edit_access":true,"language":"eng","organization":11343,"page_count":1,"page_spec":"611.9716796875x791.9716796875:0","projects":[],"related_article":"","published_url":"","slug":"text","source":"","status":"success","title":"text","updated_at":"2020-06-11T11:36:41.931770Z","user":100098},{"id":10000680,"access":"private","asset_url":"http://api.dev.documentcloud.org/files/","canonical_url":"http://www.dev.documentcloud.org/documents/10000680-test","created_at":"2020-06-11T11:47:00.458279Z","data":{},"description":"","edit_access":true,"language":"eng","organization":11343,"page_count":0,"page_spec":"","projects":[],"related_article":"","published_url":"","slug":"test","source":"","status":"error","title":"test","updated_at":"2020-06-11T11:47:20.581122Z","user":100098},{"id":10000686,"access":"private","asset_url":"http://api.dev.documentcloud.org/files/","canonical_url":"http://www.dev.documentcloud.org/documents/10000686-test","created_at":"2020-06-11T11:47:57.324310Z","data":{},"description":"","edit_access":true,"language":"eng","organization":11343,"page_count":1,"page_spec":"612.0x792.0:0","projects":[],"related_article":"","published_url":"","slug":"test","source":"","status":"success","title":"test","updated_at":"2020-06-11T11:48:01.394144Z","user":100098},{"id":10000687,"access":"private","asset_url":"http://api.dev.documentcloud.org/files/","canonical_url":"http://www.dev.documentcloud.org/documents/10000687-text","created_at":"2020-06-11T11:47:57.347361Z","data":{},"description":"","edit_access":true,"language":"eng","organization":11343,"page_count":1,"page_spec":"611.9716796875x791.9716796875:0","projects":[],"related_article":"","published_url":"","slug":"text","source":"","status":"success","title":"text","updated_at":"2020-06-11T11:48:02.862403Z","user":100098},{"id":10000701,"access":"private","asset_url":"http://api.dev.documentcloud.org/files/","canonical_url":"http://www.dev.documentcloud.org/documents/10000701-test","created_at":"2020-06-11T11:49:24.942636Z","data":{},"description":"","edit_access":true,"language":"eng","organization":11343,"page_count":1,"page_spec":"612.0x792.0:0","projects":[],"related_article":"","published_url":"","slug":"test","source":"","status":"success","title":"test","updated_at":"2020-06-11T11:49:29.035323Z","user":100098},{"id":10000702,"access":"private","asset_url":"http://api.dev.documentcloud.org/files/","canonical_url":"http://www.dev.documentcloud.org/documents/10000702-text","created_at":"2020-06-11T11:49:24.961586Z","data":{},"description":"","edit_access":true,"language":"eng","organization":11343,"page_count":1,"page_spec":"611.9716796875x791.9716796875:0","projects":[],"related_article":"","published_url":"","slug":"text","source":"","status":"success","title":"text","updated_at":"2020-06-11T11:49:29.243300Z","user":100098},{"id":10000722,"access":"private","asset_url":"http://api.dev.documentcloud.org/files/","canonical_url":"http://www.dev.documentcloud.org/documents/10000722-test","created_at":"2020-06-11T12:07:34.189354Z","data":{},"description":"","edit_access":true,"language":"eng","organization":11343,"page_count":1,"page_spec":"612.0x792.0:0","projects":[],"related_article":"","published_url":"","slug":"test","source":"","status":"success","title":"test","updated_at":"2020-06-11T12:07:37.672895Z","user":100098},{"id":10000723,"access":"private","asset_url":"http://api.dev.documentcloud.org/files/","canonical_url":"http://www.dev.documentcloud.org/documents/10000723-text","created_at":"2020-06-11T12:07:34.208764Z","data":{},"description":"","edit_access":true,"language":"eng","organization":11343,"page_count":1,"page_spec":"611.9716796875x791.9716796875:0","projects":[],"related_article":"","published_url":"","slug":"text","source":"","status":"success","title":"text","updated_at":"2020-06-11T12:07:38.240789Z","user":100098},{"id":10000739,"access":"private","asset_url":"http://api.dev.documentcloud.org/files/","canonical_url":"http://www.dev.documentcloud.org/documents/10000739-test","created_at":"2020-06-11T12:19:58.935478Z","data":{},"description":"","edit_access":true,"language":"eng","organization":11343,"page_count":1,"page_spec":"612.0x792.0:0","projects":[],"related_article":"","published_url":"","slug":"test","source":"","status":"success","title":"test","updated_at":"2020-06-11T12:20:02.994639Z","user":100098},{"id":10000740,"access":"private","asset_url":"http://api.dev.documentcloud.org/files/","canonical_url":"http://www.dev.documentcloud.org/documents/10000740-text","created_at":"2020-06-11T12:19:58.956955Z","data":{},"description":"","edit_access":true,"language":"eng","organization":11343,"page_count":1,"page_spec":"611.9716796875x791.9716796875:0","projects":[],"related_article":"","published_url":"","slug":"text","source":"","status":"success","title":"text","updated_at":"2020-06-11T12:20:03.236590Z","user":100098},{"id":10000756,"access":"private","asset_url":"http://api.dev.documentcloud.org/files/","canonical_url":"http://www.dev.documentcloud.org/documents/10000756-test","created_at":"2020-06-11T12:21:55.695059Z","data":{},"description":"","edit_access":true,"language":"eng","organization":11343,"page_count":1,"page_spec":"612.0x792.0:0","projects":[],"related_article":"","published_url":"","slug":"test","source":"","status":"success","title":"test","updated_at":"2020-06-11T12:22:00.321212Z","user":100098},{"id":10000757,"access":"private","asset_url":"http://api.dev.documentcloud.org/files/","canonical_url":"http://www.dev.documentcloud.org/documents/10000757-text","created_at":"2020-06-11T12:21:55.714293Z","data":{},"description":"","edit_access":true,"language":"eng","organization":11343,"page_count":1,"page_spec":"611.9716796875x791.9716796875:0","projects":[],"related_article":"","published_url":"","slug":"text","source":"","status":"success","title":"text","updated_at":"2020-06-11T12:22:00.275200Z","user":100098},{"id":10000773,"access":"private","asset_url":"http://api.dev.documentcloud.org/files/","canonical_url":"http://www.dev.documentcloud.org/documents/10000773-test","created_at":"2020-06-11T12:27:42.279546Z","data":{},"description":"","edit_access":true,"language":"eng","organization":11343,"page_count":1,"page_spec":"612.0x792.0:0","projects":[],"related_article":"","published_url":"","slug":"test","source":"","status":"success","title":"test","updated_at":"2020-06-11T12:27:46.457530Z","user":100098},{"id":10000774,"access":"private","asset_url":"http://api.dev.documentcloud.org/files/","canonical_url":"http://www.dev.documentcloud.org/documents/10000774-text","created_at":"2020-06-11T12:27:42.298430Z","data":{},"description":"","edit_access":true,"language":"eng","organization":11343,"page_count":1,"page_spec":"611.9716796875x791.9716796875:0","projects":[],"related_article":"","published_url":"","slug":"text","source":"","status":"success","title":"text","updated_at":"2020-06-11T12:27:46.634396Z","user":100098},{"id":10000780,"access":"private","asset_url":"http://api.dev.documentcloud.org/files/","canonical_url":"http://www.dev.documentcloud.org/documents/10000780-test","created_at":"2020-06-11T13:37:39.609758Z","data":{},"description":"","edit_access":true,"language":"eng","organization":11343,"page_count":1,"page_spec":"612.0x792.0:0","projects":[100300],"related_article":"","published_url":"","slug":"test","source":"","status":"success","title":"test","updated_at":"2020-06-11T13:37:43.908729Z","user":100098},{"id":10000781,"access":"private","asset_url":"http://api.dev.documentcloud.org/files/","canonical_url":"http://www.dev.documentcloud.org/documents/10000781-test","created_at":"2020-06-11T13:37:44.837874Z","data":{"_tag":["document"]},"description":"A
        simple test document","edit_access":true,"language":"eng","organization":11343,"page_count":1,"page_spec":"612.0x792.0:0","projects":[100300],"related_article":"https://www.example.com/article/","published_url":"https://www.example.com/article/test.pdf","slug":"test","source":"DocumentCloud","status":"success","title":"test","updated_at":"2020-06-11T13:37:48.703028Z","user":100098}]}'
    headers:
      Allow:
      - GET, POST, PUT, PATCH, DELETE, HEAD, OPTIONS
      Cache-Control:
      - no-cache
      Connection:
      - keep-alive
      Content-Language:
      - en
      Content-Length:
      - '8426'
      Content-Type:
      - application/json
      Date:
      - Thu, 11 Jun 2020 13:37:59 GMT
      Server:
      - nginx/1.15.1
      Vary:
      - Accept, Origin, Accept-Language, Cookie
      X-Frame-Options:
      - DENY
      X-XSS-Protection:
      - 1; mode=block
    status:
      code: 200
      message: OK
version: 1
